\relax 
\citation{lamport1994latex}
\@writefile{toc}{\contentsline {section}{\numberline {1}Welcome to SDLE Tea Time}{ii}}
\@writefile{toc}{\contentsline {section}{\numberline {2}Latex Writing Example}{ii}}
\citation{sereno2003measuring}
\citation{rowling1997harry}
\@writefile{lof}{\contentsline {figure}{\numberline {1}{\ignorespaces Example of inserting figure in Latex.}}{iii}}
\@writefile{lot}{\contentsline {table}{\numberline {1}{\ignorespaces Age of Character in The First Book}}{iii}}
\newlabel{t:age}{{1}{iii}}
\@writefile{lof}{\contentsline {figure}{\numberline {2}{\ignorespaces Example of Wrapping text around a figure}}{iii}}
\newlabel{fig:subim1}{{2}{iii}}
\bibcite{rowling1997harry}{1}
\bibstyle{unsrt}
\bibdata{example}
\bibcite{lamport1994latex}{1}
\bibcite{sereno2003measuring}{2}
\bibcite{rowling1997harry}{3}
\@writefile{toc}{\contentsline {section}{\numberline {3}Equation}{iv}}
\newlabel{eq:r2}{{1}{iv}}
